cpu_test.vcd
$date
	Sat Apr 30 21:29:36 2022
$end
$version
	Icarus Verilog
$end
$timescale
	100fs
$end
$scope module test_cpu $end
$scope module cpu_1 $end
$var wire 4 ! ALUOp_D [3:0] $end
$var wire 4 " ALUOp_E [3:0] $end
$var wire 1 # ALU_SrcA_D $end
$var wire 1 $ ALU_SrcA_E $end
$var wire 1 % ALU_SrcB_D $end
$var wire 1 & ALU_SrcB_E $end
$var wire 1 ' Branch_D $end
$var wire 1 ( Branch_E $end
$var wire 1 ) Branch_M $end
$var wire 1 * CLK $end
$var wire 1 + CTRL_UNIT_RST $end
$var wire 2 , Forward_A [1:0] $end
$var wire 2 - Forward_B [1:0] $end
$var wire 1 . IF_ID_Reg_Rst $end
$var wire 1 / Jal_WB_D $end
$var wire 1 0 Jal_WB_E $end
$var wire 1 1 Jal_WB_M $end
$var wire 1 2 Jal_WB_W $end
$var wire 1 3 Jump_D $end
$var wire 1 4 Jump_E $end
$var wire 1 5 Jump_M $end
$var wire 32 6 Jump_PC [31:0] $end
$var wire 32 7 Jump_const_PC [31:0] $end
$var wire 1 8 Jump_kind $end
$var wire 1 9 MemRead_D $end
$var wire 1 : MemRead_E $end
$var wire 1 ; MemRead_M $end
$var wire 1 < MemWrite_D $end
$var wire 1 = MemWrite_E $end
$var wire 1 > MemWrite_M $end
$var wire 1 ? MemtoReg_D $end
$var wire 1 @ MemtoReg_E $end
$var wire 1 A MemtoReg_M $end
$var wire 1 B MemtoReg_W $end
$var wire 32 C PCBranch_E [31:0] $end
$var wire 32 D PCBranch_M [31:0] $end
$var wire 32 E PCF [31:0] $end
$var wire 1 F PCSrcM $end
$var wire 1 G PC_NOPE $end
$var wire 32 H PC_in_1 [31:0] $end
$var wire 32 I PC_in_2 [31:0] $end
$var wire 32 J PC_plus_4 [31:0] $end
$var wire 32 K PC_plus_4_D [31:0] $end
$var wire 32 L PC_plus_4_E [31:0] $end
$var wire 32 M PC_plus_4_M [31:0] $end
$var wire 32 N PC_plus_4_W [31:0] $end
$var wire 32 O ReadData_M [31:0] $end
$var wire 32 P ReadData_W [31:0] $end
$var wire 1 Q RegDst_D $end
$var wire 1 R RegDst_E $end
$var wire 1 S RegWrite_D $end
$var wire 1 T RegWrite_E $end
$var wire 1 U RegWrite_M $end
$var wire 1 V RegWrite_W $end
$var wire 32 W Result_W_1 [31:0] $end
$var wire 32 X Result_W_2 [31:0] $end
$var wire 1 Y Show_EN $end
$var wire 32 Z SrcAE_1 [31:0] $end
$var wire 32 [ SrcAE_2 [31:0] $end
$var wire 32 \ SrcBE_1 [31:0] $end
$var wire 32 ] SrcBE_2 [31:0] $end
$var wire 32 ^ WriteData_E [31:0] $end
$var wire 32 _ WriteData_M [31:0] $end
$var wire 5 ` WriteReg_E [4:0] $end
$var wire 5 a WriteReg_M [4:0] $end
$var wire 5 b WriteReg_W [4:0] $end
$var wire 32 c alu_result [31:0] $end
$var wire 32 d alu_result_M [31:0] $end
$var wire 32 e alu_result_W [31:0] $end
$var wire 1 f alu_zero $end
$var wire 1 g alu_zero_M $end
$var wire 6 h funct [5:0] $end
$var wire 16 i imm [15:0] $end
$var wire 32 j imm_extend_32_D [31:0] $end
$var wire 32 k instrD [31:0] $end
$var wire 32 l instruction [31:0] $end
$var wire 6 m opcode [5:0] $end
$var wire 6 n opcode_D [5:0] $end
$var wire 6 o opcode_E [5:0] $end
$var wire 5 p rd [4:0] $end
$var wire 5 q rd_W [4:0] $end
$var wire 5 r rd_exe [4:0] $end
$var wire 5 s rd_mem [4:0] $end
$var wire 32 t reg_read_out_1_D [31:0] $end
$var wire 32 u reg_read_out_1_E [31:0] $end
$var wire 32 v reg_read_out_1_M [31:0] $end
$var wire 32 w reg_read_out_2_D [31:0] $end
$var wire 32 x reg_read_out_2_E [31:0] $end
$var wire 5 y rs [4:0] $end
$var wire 5 z rs_exe [4:0] $end
$var wire 5 { rt [4:0] $end
$var wire 5 | rt_exe [4:0] $end
$var wire 5 } shamt [4:0] $end
$var wire 32 ~ shamt_exe [31:0] $end
$var wire 32 !" sign_ext_exe [31:0] $end
$scope module pc_reg_module $end
$var wire 1 * CLK $end
$var wire 1 G PC_NOPE $end
$var wire 32 "" PC_in_2 [31:0] $end
$var reg 32 #" PCF [31:0] $end
$upscope $end
$scope module stall_ctr $end
$var wire 1 * CLK $end
$var wire 32 $" instruction [31:0] $end
$var reg 5 %" COUNT [4:0] $end
$var reg 1 &" CTRL_UNIT_RST $end
$var reg 1 '" IF_ID_Reg_Rst $end
$var reg 1 (" Jump_kind $end
$var reg 1 )" PC_NOPE $end
$upscope $end
$scope module IF $end
$var wire 1 * CLOCK $end
$var wire 64 *" DATA_0 [63:0] $end
$var wire 1 +" ENABLE $end
$var wire 32 ," FETCH_ADDRESS [31:0] $end
$var wire 1 -" RESET $end
$var wire 64 ." \c$wild_app_arg [63:0] $end
$var wire 64 /" \c$wild_app_arg_0 [63:0] $end
$var wire 64 0" wild [63:0] $end
$var wire 64 1" wild_0 [63:0] $end
$var wire 32 2" x1 [31:0] $end
$var wire 64 3" x1_projection [63:0] $end
$var reg 32 4" DATA [31:0] $end
$scope begin InstructionRAM_blockRamFile $end
$upscope $end
$upscope $end
$scope module if_id_reg $end
$var wire 1 * CLK $end
$var wire 1 . IF_ID_Reg_Rst $end
$var wire 32 5" PC_plus_4 [31:0] $end
$var wire 32 6" instruction [31:0] $end
$var reg 32 7" PC_plus_4_D [31:0] $end
$var reg 32 8" instrD [31:0] $end
$upscope $end
$scope module ctr_unit $end
$var wire 4 9" ALUOp [3:0] $end
$var wire 1 # ALU_SrcA $end
$var wire 1 % ALU_SrcB $end
$var wire 1 ' Branch $end
$var wire 1 * CLK $end
$var wire 1 :" CTRL_UNIT_RST $end
$var wire 1 3 Jump $end
$var wire 1 9 MemRead $end
$var wire 1 < MemWrite $end
$var wire 1 ? MemtoReg $end
$var wire 1 Q RegDst $end
$var wire 1 S RegWrite $end
$var wire 6 ;" funct [5:0] $end
$var wire 6 <" opcode [5:0] $end
$var reg 4 =" ALUOp_reg [3:0] $end
$var reg 1 >" ALU_SrcA_reg $end
$var reg 1 ?" ALU_SrcB_reg $end
$var reg 1 @" Branch_reg $end
$var reg 1 A" Jal_WB_D $end
$var reg 1 B" Jump_reg $end
$var reg 1 C" MemRead_reg $end
$var reg 1 D" MemWrite_reg $end
$var reg 1 E" MemtoReg_reg $end
$var reg 1 F" RegDst_reg $end
$var reg 1 G" RegWrite_reg $end
$var reg 6 H" opcode_D [5:0] $end
$upscope $end
$scope module reg_file $end
$var wire 1 * CLK $end
$var wire 1 2 Jal_WB_W $end
$var wire 1 V RegWrite $end
$var wire 1 Y Show_EN $end
$var wire 5 I" read_add1 [4:0] $end
$var wire 5 J" read_add2 [4:0] $end
$var wire 32 K" read_out_data1 [31:0] $end
$var wire 32 L" read_out_data2 [31:0] $end
$var wire 5 M" write_add [4:0] $end
$var wire 32 N" write_data [31:0] $end
$var integer 32 O" i [31:0] $end
$var integer 32 P" output_file [31:0] $end
$var reg 32 Q" read_reg_1 [31:0] $end
$var reg 32 R" read_reg_2 [31:0] $end
$upscope $end
$scope module sign_extend_D $end
$var wire 32 S" extend_32 [31:0] $end
$var wire 16 T" imm [15:0] $end
$var wire 6 U" opcode [5:0] $end
$var reg 32 V" result [31:0] $end
$upscope $end
$scope module id_exe_reg $end
$var wire 4 W" ALUOp_D [3:0] $end
$var wire 1 # ALU_SrcA_D $end
$var wire 1 % ALU_SrcB_D $end
$var wire 1 ' Branch_D $end
$var wire 1 * CLK $end
$var wire 1 / Jal_WB_D $end
$var wire 1 3 Jump_D $end
$var wire 1 9 MemRead_D $end
$var wire 1 < MemWrite_D $end
$var wire 1 ? MemtoReg_D $end
$var wire 32 X" PC_plus_4_D [31:0] $end
$var wire 1 Q RegDst_D $end
$var wire 1 S RegWrite_D $end
$var wire 6 Y" opcode_D [5:0] $end
$var wire 5 Z" rd [4:0] $end
$var wire 32 [" reg_read_out_1_D [31:0] $end
$var wire 32 \" reg_read_out_2_D [31:0] $end
$var wire 5 ]" rs [4:0] $end
$var wire 5 ^" rt [4:0] $end
$var wire 5 _" shamt [4:0] $end
$var wire 32 `" sign_ext [31:0] $end
$var reg 4 a" ALUOp_E_reg [3:0] $end
$var reg 1 b" ALU_SrcA_E_reg $end
$var reg 1 c" ALU_SrcB_E_reg $end
$var reg 1 d" Branch_E_reg $end
$var reg 1 e" Jal_WB_E_reg $end
$var reg 1 f" Jump_E_reg $end
$var reg 1 g" MemRead_E_reg $end
$var reg 1 h" MemWrite_E_reg $end
$var reg 1 i" MemtoReg_E_reg $end
$var reg 32 j" PC_plus_4_E_reg [31:0] $end
$var reg 1 k" RegDst_E_reg $end
$var reg 1 l" RegWrite_E_reg $end
$var reg 6 m" opcode_E_reg [5:0] $end
$var reg 5 n" rd_exe_reg [4:0] $end
$var reg 32 o" reg_read_out_1_E_reg [31:0] $end
$var reg 32 p" reg_read_out_2_E_reg [31:0] $end
$var reg 5 q" rs_exe_reg [4:0] $end
$var reg 5 r" rt_exe_reg [4:0] $end
$var reg 32 s" shamt_exe_reg [31:0] $end
$var reg 32 t" sign_ext_exe_reg [31:0] $end
$upscope $end
$scope module alu_srcA1_selector $end
$var wire 32 u" A [31:0] $end
$var wire 32 v" B [31:0] $end
$var wire 32 w" C [31:0] $end
$var wire 32 x" D [31:0] $end
$var wire 2 y" sig [1:0] $end
$var reg 32 z" reg_D [31:0] $end
$upscope $end
$scope module alu_srcA2_selector $end
$var wire 32 {" A [31:0] $end
$var wire 32 |" B [31:0] $end
$var wire 32 }" C [31:0] $end
$var wire 1 $ sig $end
$upscope $end
$scope module alu_srcB1_selector $end
$var wire 32 ~" A [31:0] $end
$var wire 32 !# B [31:0] $end
$var wire 32 "# C [31:0] $end
$var wire 32 ## D [31:0] $end
$var wire 2 $# sig [1:0] $end
$var reg 32 %# reg_D [31:0] $end
$upscope $end
$scope module alu_regB2_selector $end
$var wire 32 &# A [31:0] $end
$var wire 32 '# B [31:0] $end
$var wire 32 (# C [31:0] $end
$var wire 1 & sig $end
$upscope $end
$scope module alu_for_cpu $end
$var wire 4 )# alu_op [3:0] $end
$var wire 6 *# opcode_E [5:0] $end
$var wire 32 +# reg_A [31:0] $end
$var wire 32 ,# reg_B [31:0] $end
$var reg 32 -# result [31:0] $end
$var reg 1 .# sign $end
$var reg 1 /# zero $end
$upscope $end
$scope module WriteReg_Mulx $end
$var wire 5 0# A [4:0] $end
$var wire 5 1# B [4:0] $end
$var wire 5 2# C [4:0] $end
$var wire 1 R sig $end
$upscope $end
$scope module pc_branch_shift_addition $end
$var wire 32 3# PC_plus_4_E [31:0] $end
$var wire 32 4# SignImmE [31:0] $end
$var reg 32 5# PCBranch_E [31:0] $end
$upscope $end
$scope module exe_mem_reg $end
$var wire 1 ( Branch_E $end
$var wire 1 * CLK $end
$var wire 1 0 Jal_WB_E $end
$var wire 1 4 Jump_E $end
$var wire 1 : MemRead_E $end
$var wire 1 = MemWrite_E $end
$var wire 1 @ MemtoReg_E $end
$var wire 32 6# PCBranch_E [31:0] $end
$var wire 32 7# PC_plus_4_E [31:0] $end
$var wire 1 T RegWrite_E $end
$var wire 32 8# SrcAE_1 [31:0] $end
$var wire 32 9# WriteData_E [31:0] $end
$var wire 5 :# WriteReg_E [4:0] $end
$var wire 32 ;# alu_result [31:0] $end
$var wire 1 f alu_zero $end
$var wire 5 <# rd_exe [4:0] $end
$var reg 1 =# Branch_M_reg $end
$var reg 1 ># Jal_WB_M_reg $end
$var reg 1 ?# Jump_M_reg $end
$var reg 1 @# MemRead_M_reg $end
$var reg 1 A# MemWrite_M_reg $end
$var reg 1 B# MemtoReg_M_reg $end
$var reg 32 C# PCBranch_M_reg [31:0] $end
$var reg 32 D# PC_plus_4_M_reg [31:0] $end
$var reg 1 E# RegWrite_M_reg $end
$var reg 32 F# WriteData_M_reg [31:0] $end
$var reg 5 G# WriteReg_M_reg [4:0] $end
$var reg 32 H# alu_result_M_reg [31:0] $end
$var reg 1 I# alu_zero_M_reg $end
$var reg 5 J# rd_mem_reg [4:0] $end
$var reg 32 K# reg_read_out_1_M_reg [31:0] $end
$upscope $end
$scope module main_memory $end
$var wire 1 * CLK $end
$var wire 32 L# READ_ADDRESS [31:0] $end
$var wire 32 M# READ_DATA [31:0] $end
$var wire 1 ; READ_EN $end
$var wire 1 Y Show_EN $end
$var wire 32 N# WRITE_ADDRESS [31:0] $end
$var wire 32 O# WRITE_DATA [31:0] $end
$var wire 1 > WRITE_EN $end
$var reg 32 P# READ_DATA_reg [31:0] $end
$var integer 32 Q# i [31:0] $end
$var integer 32 R# output_file [31:0] $end
$upscope $end
$scope module mem_wb_reg $end
$var wire 1 * CLK $end
$var wire 1 1 Jal_WB_M $end
$var wire 1 A MemtoReg_M $end
$var wire 32 S# PC_plus_4_M [31:0] $end
$var wire 32 T# ReadData_M [31:0] $end
$var wire 1 U RegWrite_M $end
$var wire 5 U# WriteReg_M [4:0] $end
$var wire 32 V# alu_result_M [31:0] $end
$var wire 5 W# rd_mem [4:0] $end
$var reg 1 X# Jal_WB_W_reg $end
$var reg 1 Y# MemtoReg_W_reg $end
$var reg 32 Z# PC_plus_4_W_reg [31:0] $end
$var reg 32 [# ReadData_W_reg [31:0] $end
$var reg 1 \# RegWrite_W_reg $end
$var reg 5 ]# WriteReg_W_reg [4:0] $end
$var reg 32 ^# alu_result_W_reg [31:0] $end
$var reg 5 _# rd_W_reg [4:0] $end
$upscope $end
$scope module write_back_aluout_w_read_Data_W_selector $end
$var wire 32 `# A [31:0] $end
$var wire 32 a# B [31:0] $end
$var wire 32 b# C [31:0] $end
$var wire 1 B sig $end
$upscope $end
$scope module select_PC_plus_4_W_or_Result_W_1 $end
$var wire 32 c# A [31:0] $end
$var wire 32 d# B [31:0] $end
$var wire 32 e# C [31:0] $end
$var wire 1 2 sig $end
$upscope $end
$scope module select_PC4_or_Branch $end
$var wire 32 f# A [31:0] $end
$var wire 32 g# B [31:0] $end
$var wire 32 h# C [31:0] $end
$var wire 1 F sig $end
$upscope $end
$scope module select_PC_in_1_or_Jump_PC $end
$var wire 32 i# A [31:0] $end
$var wire 32 j# B [31:0] $end
$var wire 32 k# C [31:0] $end
$var wire 1 5 sig $end
$upscope $end
$scope module select_jump_pc $end
$var wire 32 l# A [31:0] $end
$var wire 32 m# B [31:0] $end
$var wire 32 n# C [31:0] $end
$var wire 1 8 sig $end
$upscope $end
$scope module forward_unit $end
$var wire 1 * CLK $end
$var wire 1 U RegWrite_M $end
$var wire 1 V RegWrite_W $end
$var wire 32 o# Result_W_2 [31:0] $end
$var wire 5 p# WriteReg_M [4:0] $end
$var wire 5 q# WriteReg_W [4:0] $end
$var wire 32 r# alu_result_M [31:0] $end
$var wire 5 s# rs_exe [4:0] $end
$var wire 5 t# rt_exe [4:0] $end
$var reg 2 u# Forward_A [1:0] $end
$var reg 2 v# Forward_B [1:0] $end
$upscope $end
$upscope $end
$upscope $end
$enddefinitions $end
#0
$dumpvars
b0 v#
b0 u#
b0 t#
b0 s#
bx r#
b0 q#
b0 p#
b0 o#
b10010000000000001100 n#
b0 m#
b10010000000000001100 l#
b1 k#
b10010000000000001100 j#
b1 i#
b1 h#
b0 g#
b1 f#
b0 e#
b0 d#
b0 c#
b0 b#
bx a#
b0 `#
b0 _#
b0 ^#
b0 ]#
0\#
bx [#
b0 Z#
0Y#
0X#
b0 W#
bx V#
b0 U#
bx T#
b0 S#
b10000000000000000000000000000100 R#
b1000000000 Q#
bx P#
b0 O#
bx N#
bx M#
bx L#
b0 K#
b0 J#
xI#
bx H#
b0 G#
b0 F#
0E#
b0 D#
b0 C#
0B#
0A#
0@#
0?#
0>#
0=#
b0 <#
bx ;#
b0 :#
bx 9#
bx 8#
b0 7#
bx 6#
bx 5#
bx 4#
b0 3#
b0 2#
b0 1#
b0 0#
x/#
x.#
bx -#
bx ,#
bx +#
b0 *#
b0 )#
bx (#
bx '#
bx &#
bx %#
b0 $#
bx ##
bx "#
b0 !#
bx ~"
bx }"
b0 |"
bx {"
bx z"
b0 y"
bx x"
bx w"
b0 v"
bx u"
bx t"
b0 s"
b0 r"
b0 q"
bx p"
bx o"
b0 n"
b0 m"
0l"
xk"
b0 j"
0i"
0h"
0g"
0f"
0e"
0d"
0c"
0b"
b0 a"
b0 `"
b0 _"
b0 ^"
b0 ]"
b0 \"
b0 ["
b0 Z"
b0 Y"
b0 X"
b0 W"
b0 V"
b0 U"
b0 T"
b0 S"
b0 R"
b0 Q"
b10000000000000000000000000000011 P"
b100000 O"
b0 N"
b0 M"
b0 L"
b0 K"
b0 J"
b0 I"
b0 H"
0G"
xF"
0E"
0D"
0C"
0B"
0A"
0@"
0?"
0>"
b0 ="
b0 <"
b0 ;"
z:"
b0 9"
b0 8"
b0 7"
b100000000010010000000000001100 6"
b1 5"
b100000000010010000000000001100 4"
bx 3"
bx 2"
b0xxxxxxxxxxxxxxxxxxxxxxxxxxxxxxxx 1"
b0 0"
b0xxxxxxxxxxxxxxxxxxxxxxxxxxxxxxxx /"
b0 ."
0-"
b0 ,"
1+"
bx *"
0)"
0("
0'"
0&"
b0 %"
b100000000010010000000000001100 $"
b0 #"
b1 ""
bx !"
b0 ~
b0 }
b0 |
b0 {
b0 z
b0 y
bx x
b0 w
b0 v
bx u
b0 t
b0 s
b0 r
b0 q
b0 p
b0 o
b0 n
b0 m
b100000000010010000000000001100 l
b0 k
b0 j
b0 i
b0 h
xg
xf
b0 e
bx d
bx c
b0 b
b0 a
b0 `
b0 _
bx ^
bx ]
bx \
bx [
bx Z
0Y
b0 X
b0 W
0V
0U
0T
0S
xR
xQ
bx P
bx O
b0 N
b0 M
b0 L
b0 K
b1 J
b1 I
b1 H
0G
0F
b0 E
b0 D
bx C
0B
0A
0@
0?
0>
0=
0<
0;
0:
09
08
b10010000000000001100 7
b10010000000000001100 6
05
04
03
02
01
00
0/
0.
b0 -
b0 ,
0+
1*
0)
0(
0'
0&
0%
0$
0#
b0 "
b0 !
$end
#1
1>"
1#
1G"
1S
1F"
1Q
b1000 ="
b1000 !
b1000 9"
b1000 W"
#10
0*
#20
bx X
bx N"
bx v"
bx !#
bx e#
bx o#
0.#
1/#
1f
b0 -#
b0 c
b0 ;#
b10101111111111111110 6
b10101111111111111110 j#
b10101111111111111110 n#
b0 ]
b0 (#
b0 ,#
b0 [
b0 }"
b0 +#
bx W
bx b#
bx c#
b1100 V"
b1100 j
b1100 S"
b1100 `"
b10101111111111111110 7
b10101111111111111110 l#
b0 5#
b0 C
b0 6#
b0 %#
b0 \
b0 ##
b0 &#
b0 ^
b0 9#
b0 z"
b0 Z
b0 x"
b0 {"
b0 8#
b1100 i
b1100 T"
b1100 h
b1100 ;"
b1001 {
b1001 J"
b1001 ^"
b1000 m
b1000 <"
b1000 U"
b100000000010101111111111111110 4"
b100000000010101111111111111110 l
b100000000010101111111111111110 $"
b100000000010101111111111111110 6"
bx ^#
bx e
bx `#
bx K#
bx m#
bx v
bx C#
bx D
bx g#
bx F#
bx _
bx O#
b0 t"
b0 !"
b0 '#
b0 4#
b0 p"
b0 x
b0 ~"
b0 o"
b0 u
b0 u"
1b"
1$
b1000 a"
b1000 "
b1000 )#
1l"
1T
1k"
1R
b1 7"
b1 K
b1 X"
b100000000010010000000000001100 8"
b100000000010010000000000001100 k
b10 I
b10 ""
b10 k#
b10 H
b10 h#
b10 i#
b10 J
b10 5"
b10 f#
b1 #"
b1 ."
b1 0"
b1 E
b1 ,"
1*
#21
1?"
1%
0>"
0#
0F"
0Q
b0 ="
b0 !
b0 9"
b0 W"
b1000 H"
b1000 n
b1000 Y"
#30
0*
#40
b10110000000000010111 6
b10110000000000010111 j#
b10110000000000010111 n#
0/#
0f
b1100 -#
b1100 c
b1100 ;#
b11111111111111111111111111111110 V"
b11111111111111111111111111111110 j
b11111111111111111111111111111110 S"
b11111111111111111111111111111110 `"
b1100 ]
b1100 (#
b1100 ,#
b10110000000000010111 7
b10110000000000010111 l#
b1111111111111110 i
b1111111111111110 T"
b11111 }
b11111 _"
b111110 h
b111110 ;"
b11111 p
b11111 Z"
b1010 {
b1010 J"
b1010 ^"
b1101 5#
b1101 C
b1101 6#
b1001 `
b1001 2#
b1001 :#
b100000000010110000000000010111 4"
b100000000010110000000000010111 l
b100000000010110000000000010111 $"
b100000000010110000000000010111 6"
b10 7"
b10 K
b10 X"
b100000000010101111111111111110 8"
b100000000010101111111111111110 k
b1000 m"
b1000 o
b1000 *#
b1 j"
b1 L
b1 3#
b1 7#
b1100 t"
b1100 !"
b1100 '#
b1100 4#
b1001 r"
b1001 |
b1001 0#
b1001 t#
1c"
1&
0b"
0$
b0 a"
b0 "
b0 )#
0k"
0R
b0 K#
b0 m#
b0 v
b0 C#
b0 D
b0 g#
b0 F#
b0 _
b0 O#
b0 H#
b0 d
b0 w"
b0 "#
b0 L#
b0 N#
b0 V#
b0 r#
1I#
1g
1E#
1U
b11 I
b11 ""
b11 k#
b11 H
b11 h#
b11 i#
b11 J
b11 5"
b11 f#
b10 #"
b10 ."
b10 0"
b10 E
b10 ,"
1*
#50
0*
#60
b0 X
b0 N"
b0 v"
b0 !#
b0 e#
b0 o#
b100000000000000000 6
b100000000000000000 j#
b100000000000000000 n#
1.#
b11111111111111111111111111111110 -#
b11111111111111111111111111111110 c
b11111111111111111111111111111110 ;#
b0 W
b0 b#
b0 c#
b11111111111111111111111111111110 ]
b11111111111111111111111111111110 (#
b11111111111111111111111111111110 ,#
b10111 V"
b10111 j
b10111 S"
b10111 `"
b100000000000000000 7
b100000000000000000 l#
b0 5#
b0 C
b0 6#
b1010 `
b1010 2#
b1010 :#
b10111 i
b10111 T"
b0 }
b0 _"
b10111 h
b10111 ;"
b0 p
b0 Z"
b1011 {
b1011 J"
b1011 ^"
b100000000000100000000000000000 4"
b100000000000100000000000000000 l
b100000000000100000000000000000 $"
b100000000000100000000000000000 6"
b0 ^#
b0 e
b0 `#
1\#
1V
b1 D#
b1 M
b1 S#
b1101 C#
b1101 D
b1101 g#
b1001 G#
b1001 a
b1001 U#
b1001 p#
b1100 H#
b1100 d
b1100 w"
b1100 "#
b1100 L#
b1100 N#
b1100 V#
b1100 r#
0I#
0g
b10 j"
b10 L
b10 3#
b10 7#
b11111111111111111111111111111110 t"
b11111111111111111111111111111110 !"
b11111111111111111111111111111110 '#
b11111111111111111111111111111110 4#
b11111 s"
b11111 ~
b11111 |"
b11111 n"
b11111 r
b11111 1#
b11111 <#
b1010 r"
b1010 |
b1010 0#
b1010 t#
b11 7"
b11 K
b11 X"
b100000000010110000000000010111 8"
b100000000010110000000000010111 k
b100 I
b100 ""
b100 k#
b100 H
b100 h#
b100 i#
b100 J
b100 5"
b100 f#
b11 #"
b11 ."
b11 0"
b11 E
b11 ,"
1*
#70
0*
#80
b1100 X
b1100 N"
b1100 v"
b1100 !#
b1100 e#
b1100 o#
b110000000000010011 6
b110000000000010011 j#
b110000000000010011 n#
0.#
b10111 -#
b10111 c
b10111 ;#
b0 V"
b0 j
b0 S"
b0 `"
b10111 ]
b10111 (#
b10111 ,#
b1100 W
b1100 b#
b1100 c#
b110000000000010011 7
b110000000000010011 l#
b0 i
b0 T"
b0 h
b0 ;"
b10 {
b10 J"
b10 ^"
b11010 5#
b11010 C
b11010 6#
b1011 `
b1011 2#
b1011 :#
b100000000000110000000000010011 4"
b100000000000110000000000010011 l
b100000000000110000000000010011 $"
b100000000000110000000000010011 6"
b100 7"
b100 K
b100 X"
b100000000000100000000000000000 8"
b100000000000100000000000000000 k
b11 j"
b11 L
b11 3#
b11 7#
b10111 t"
b10111 !"
b10111 '#
b10111 4#
b0 s"
b0 ~
b0 |"
b0 n"
b0 r
b0 1#
b0 <#
b1011 r"
b1011 |
b1011 0#
b1011 t#
b11111 J#
b11111 s
b11111 W#
b10 D#
b10 M
b10 S#
b0 C#
b0 D
b0 g#
b1010 G#
b1010 a
b1010 U#
b1010 p#
b11111111111111111111111111111110 H#
b11111111111111111111111111111110 d
b11111111111111111111111111111110 w"
b11111111111111111111111111111110 "#
b11111111111111111111111111111110 L#
b11111111111111111111111111111110 N#
b11111111111111111111111111111110 V#
b11111111111111111111111111111110 r#
b1 Z#
b1 N
b1 d#
b1001 ]#
b1001 b
b1001 M"
b1001 q#
b1100 ^#
b1100 e
b1100 `#
b101 I
b101 ""
b101 k#
b101 H
b101 h#
b101 i#
b101 J
b101 5"
b101 f#
b100 #"
b100 ."
b100 0"
b100 E
b100 ,"
1*
#90
0*
#100
b11111111111111111111111111111110 X
b11111111111111111111111111111110 N"
b11111111111111111111111111111110 v"
b11111111111111111111111111111110 !#
b11111111111111111111111111111110 e#
b11111111111111111111111111111110 o#
b1000000000000000001 6
b1000000000000000001 j#
b1000000000000000001 n#
1/#
1f
b0 -#
b0 c
b0 ;#
b11111111111111111111111111111110 W
b11111111111111111111111111111110 b#
b11111111111111111111111111111110 c#
b0 ]
b0 (#
b0 ,#
b10011 V"
b10011 j
b10011 S"
b10011 `"
b1000000000000000001 7
b1000000000000000001 l#
b100 5#
b100 C
b100 6#
b10 `
b10 2#
b10 :#
b10011 i
b10011 T"
b10011 h
b10011 ;"
b11 {
b11 J"
b11 ^"
b100000000001000000000000000001 4"
b100000000001000000000000000001 l
b100000000001000000000000000001 $"
b100000000001000000000000000001 6"
b11111 _#
b11111 q
b10 Z#
b10 N
b10 d#
b1010 ]#
b1010 b
b1010 M"
b1010 q#
b11111111111111111111111111111110 ^#
b11111111111111111111111111111110 e
b11111111111111111111111111111110 `#
b0 J#
b0 s
b0 W#
b11 D#
b11 M
b11 S#
b11010 C#
b11010 D
b11010 g#
b1011 G#
b1011 a
b1011 U#
b1011 p#
b10111 H#
b10111 d
b10111 w"
b10111 "#
b10111 L#
b10111 N#
b10111 V#
b10111 r#
b100 j"
b100 L
b100 3#
b100 7#
b0 t"
b0 !"
b0 '#
b0 4#
b10 r"
b10 |
b10 0#
b10 t#
b101 7"
b101 K
b101 X"
b100000000000110000000000010011 8"
b100000000000110000000000010011 k
b110 I
b110 ""
b110 k#
b110 H
b110 h#
b110 i#
b110 J
b110 5"
b110 f#
b101 #"
b101 ."
b101 0"
b101 E
b101 ,"
1*
#110
0*
#120
b10111 X
b10111 N"
b10111 v"
b10111 !#
b10111 e#
b10111 o#
b10001111111111111111 6
b10001111111111111111 j#
b10001111111111111111 n#
0/#
0f
b10011 -#
b10011 c
b10011 ;#
b1 V"
b1 j
b1 S"
b1 `"
b10011 ]
b10011 (#
b10011 ,#
b10111 W
b10111 b#
b10111 c#
b10001111111111111111 7
b10001111111111111111 l#
b1 i
b1 T"
b1 h
b1 ;"
b100 {
b100 J"
b100 ^"
b11000 5#
b11000 C
b11000 6#
b11 `
b11 2#
b11 :#
b100000000010001111111111111111 4"
b100000000010001111111111111111 l
b100000000010001111111111111111 $"
b100000000010001111111111111111 6"
b110 7"
b110 K
b110 X"
b100000000001000000000000000001 8"
b100000000001000000000000000001 k
b101 j"
b101 L
b101 3#
b101 7#
b10011 t"
b10011 !"
b10011 '#
b10011 4#
b11 r"
b11 |
b11 0#
b11 t#
b100 D#
b100 M
b100 S#
b100 C#
b100 D
b100 g#
b10 G#
b10 a
b10 U#
b10 p#
b0 H#
b0 d
b0 w"
b0 "#
b0 L#
b0 N#
b0 V#
b0 r#
1I#
1g
b0 _#
b0 q
b11 Z#
b11 N
b11 d#
b1011 ]#
b1011 b
b1011 M"
b1011 q#
b10111 ^#
b10111 e
b10111 `#
b111 I
b111 ""
b111 k#
b111 H
b111 h#
b111 i#
b111 J
b111 5"
b111 f#
b110 #"
b110 ."
b110 0"
b110 E
b110 ,"
1*
#130
0*
#140
b0 X
b0 N"
b0 v"
b0 !#
b0 e#
b0 o#
b1100000000000000001 6
b1100000000000000001 j#
b1100000000000000001 n#
b1 -#
b1 c
b1 ;#
b0 W
b0 b#
b0 c#
b1 ]
b1 (#
b1 ,#
b11111111111111111111111111111111 V"
b11111111111111111111111111111111 j
b11111111111111111111111111111111 S"
b11111111111111111111111111111111 `"
b1100000000000000001 7
b1100000000000000001 l#
b111 5#
b111 C
b111 6#
b100 `
b100 2#
b100 :#
b1111111111111111 i
b1111111111111111 T"
b11111 }
b11111 _"
b111111 h
b111111 ;"
b11111 p
b11111 Z"
b1000 {
b1000 J"
b1000 ^"
b100000000001100000000000000001 4"
b100000000001100000000000000001 l
b100000000001100000000000000001 $"
b100000000001100000000000000001 6"
b100 Z#
b100 N
b100 d#
b10 ]#
b10 b
b10 M"
b10 q#
b0 ^#
b0 e
b0 `#
b101 D#
b101 M
b101 S#
b11000 C#
b11000 D
b11000 g#
b11 G#
b11 a
b11 U#
b11 p#
b10011 H#
b10011 d
b10011 w"
b10011 "#
b10011 L#
b10011 N#
b10011 V#
b10011 r#
0I#
0g
b110 j"
b110 L
b110 3#
b110 7#
b1 t"
b1 !"
b1 '#
b1 4#
b100 r"
b100 |
b100 0#
b100 t#
b111 7"
b111 K
b111 X"
b100000000010001111111111111111 8"
b100000000010001111111111111111 k
b1000 I
b1000 ""
b1000 k#
b1000 H
b1000 h#
b1000 i#
b1000 J
b1000 5"
b1000 f#
b111 #"
b111 ."
b111 0"
b111 E
b111 ,"
1*
#150
0*
